{"customers":[{"customer_id":"CUST_A7ECDED7","company_name":"Ferguson Inc","company_size":"Mid-Market","industry":"Technology","channel":"Partner","status":"Active","start_date":"2023-08-11 00:00:00","churn_date":null,"current_mrr":9565.33,"arr":114783.95999999999,"initial_mrr":6766.63,"health_score":"Green","churn_probability":0.05,"nps_score":9,"tenure_days":897},{"customer_id":"CUST_778459B6","company_name":"Jensen Inc","company_size":"Mid-Market","industry":"Professional Services","channel":"Organic Search","status":"Active","start_date":"2023-09-08 00:00:00","churn_date":null,"current_mrr":3069.31,"arr":36831.72,"initial_mrr":3618.42,"health_score":"Green","churn_probability":0.05,"nps_score":9,"tenure_days":869},{"customer_id":"CUST_D054A6EF","company_name":"Estrada, Johnson and Chandler","company_size":"SMB","industry":"Other","channel":"Organic Search","status":"Active","start_date":"2024-01-21 00:00:00","churn_date":null,"current_mrr":1000.4,"arr":12004.8,"initial_mrr":1000.4,"health_score":"Green","churn_probability":0.05,"nps_score":10,"tenure_days":734},{"customer_id":"CUST_05F75C7B","company_name":"Skinner, Velasquez and Mcdonald","company_size":"SMB","industry":"Manufacturing","channel":"Referral","status":"Active","start_date":"2023-05-31 00:00:00","churn_date":null,"current_mrr":1233.03,"arr":14796.36,"initial_mrr":1273.54,"health_score":"Green","churn_probability":0.051,"nps_score":10,"tenure_days":969},{"customer_id":"CUST_E75BD50A","company_name":"Kelly and Sons","company_size":"Mid-Market","industry":"Technology","channel":"Organic Search","status":"Active","start_date":"2023-10-04 00:00:00","churn_date":null,"current_mrr":5314.11,"arr":63769.31999999999,"initial_mrr":7156.52,"health_score":"Green","churn_probability":0.051,"nps_score":10,"tenure_days":843},{"customer_id":"CUST_4EAF3173","company_name":"Rodriguez-Cohen","company_size":"Mid-Market","industry":"Technology","channel":"Content Marketing","status":"Active","start_date":"2023-11-16 00:00:00","churn_date":null,"current_mrr":7780.4,"arr":93364.79999999999,"initial_mrr":7780.4,"health_score":"Green","churn_probability":0.051,"nps_score":9,"tenure_days":800},{"customer_id":"CUST_E2705509","company_name":"Munoz Ltd","company_size":"SMB","industry":"Manufacturing","channel":"Organic Search","status":"Active","start_date":"2023-12-06 00:00:00","churn_date":null,"current_mrr":829.68,"arr":9956.16,"initial_mrr":829.68,"health_score":"Green","churn_probability":0.051,"nps_score":9,"tenure_days":780},{"customer_id":"CUST_B4ED44CD","company_name":"Allen-Martin","company_size":"Mid-Market","industry":"Technology","channel":"Paid Search","status":"Active","start_date":"2024-01-14 00:00:00","churn_date":null,"current_mrr":8336.98,"arr":100043.76,"initial_mrr":6652.55,"health_score":"Green","churn_probability":0.051,"nps_score":9,"tenure_days":741},{"customer_id":"CUST_ABC525F3","company_name":"Jones and Sons","company_size":"Mid-Market","industry":"Manufacturing","channel":"Referral","status":"Active","start_date":"2024-02-03 00:00:00","churn_date":null,"current_mrr":8766.79,"arr":105201.48000000001,"initial_mrr":7084.93,"health_score":"Green","churn_probability":0.051,"nps_score":10,"tenure_days":721},{"customer_id":"CUST_B74924D9","company_name":"Garcia-Black","company_size":"SMB","industry":"Retail","channel":"Partner","status":"Active","start_date":"2024-02-24 00:00:00","churn_date":null,"current_mrr":893.26,"arr":10719.119999999999,"initial_mrr":893.26,"health_score":"Green","churn_probability":0.051,"nps_score":9,"tenure_days":700},{"customer_id":"CUST_B82A757C","company_name":"Carter and Sons","company_size":"SMB","industry":"Technology","channel":"Organic Search","status":"Active","start_date":"2023-04-21 00:00:00","churn_date":null,"current_mrr":2100.36,"arr":25204.32,"initial_mrr":1142.67,"health_score":"Green","churn_probability":0.052,"nps_score":9,"tenure_days":1009},{"customer_id":"CUST_7517FF52","company_name":"Sullivan and Sons","company_size":"SMB","industry":"Healthcare","channel":"Events","status":"Active","start_date":"2023-08-13 00:00:00","churn_date":null,"current_mrr":2565.1,"arr":30781.199999999997,"initial_mrr":1921.64,"health_score":"Green","churn_probability":0.052,"nps_score":10,"tenure_days":895},{"customer_id":"CUST_012A1B49","company_name":"Rich, Taylor and Nelson","company_size":"Mid-Market","industry":"Retail","channel":"Content Marketing","status":"Active","start_date":"2024-01-07 00:00:00","churn_date":null,"current_mrr":10549.34,"arr":126592.08,"initial_mrr":6060.95,"health_score":"Green","churn_probability":0.052,"nps_score":9,"tenure_days":748},{"customer_id":"CUST_2946A68E","company_name":"Mitchell, Nelson and Flores","company_size":"SMB","industry":"Technology","channel":"Organic Search","status":"Active","start_date":"2023-01-28 00:00:00","churn_date":null,"current_mrr":1438.42,"arr":17261.04,"initial_mrr":855.95,"health_score":"Green","churn_probability":0.053,"nps_score":10,"tenure_days":1092},{"customer_id":"CUST_00538F77","company_name":"Good PLC","company_size":"Mid-Market","industry":"Professional Services","channel":"Referral","status":"Active","start_date":"2023-06-09 00:00:00","churn_date":null,"current_mrr":5886.21,"arr":70634.52,"initial_mrr":4616.81,"health_score":"Green","churn_probability":0.054,"nps_score":9,"tenure_days":960},{"customer_id":"CUST_BDEE84B4","company_name":"Nelson, Miller and Best","company_size":"SMB","industry":"Other","channel":"Content Marketing","status":"Active","start_date":"2023-12-27 00:00:00","churn_date":null,"current_mrr":1727.49,"arr":20729.88,"initial_mrr":1192.83,"health_score":"Green","churn_probability":0.054,"nps_score":9,"tenure_days":759},{"customer_id":"CUST_4EC12A70","company_name":"Welch Ltd","company_size":"Mid-Market","industry":"Healthcare","channel":"Referral","status":"Active","start_date":"2024-02-29 00:00:00","churn_date":null,"current_mrr":3673.36,"arr":44080.32,"initial_mrr":3673.36,"health_score":"Green","churn_probability":0.054,"nps_score":10,"tenure_days":695},{"customer_id":"CUST_DB188B68","company_name":"Carter, Smith and Gillespie","company_size":"SMB","industry":"Professional Services","channel":"Organic Search","status":"Active","start_date":"2024-01-17 00:00:00","churn_date":null,"current_mrr":1161.62,"arr":13939.439999999999,"initial_mrr":870.89,"health_score":"Green","churn_probability":0.054,"nps_score":9,"tenure_days":738},{"customer_id":"CUST_73BE3190","company_name":"Hicks-Martinez","company_size":"Enterprise","industry":"Retail","channel":"Organic Search","status":"Active","start_date":"2023-02-22 00:00:00","churn_date":null,"current_mrr":11419.23,"arr":137030.76,"initial_mrr":14147.19,"health_score":"Green","churn_probability":0.055,"nps_score":9,"tenure_days":1067},{"customer_id":"CUST_8B8F941D","company_name":"Ayala and Sons","company_size":"SMB","industry":"Financial Services","channel":"Events","status":"Active","start_date":"2023-06-24 00:00:00","churn_date":null,"current_mrr":1958.69,"arr":23504.28,"initial_mrr":903.2,"health_score":"Green","churn_probability":0.055,"nps_score":10,"tenure_days":945}],"total":1136,"limit":20,"offset":0,"has_more":true}